…
PhenoFile = "../GRAB/extdata/simuLongPHENO.txt" # copy the filepath of simuLongPHENO.txt.
```

### Display the example data set

```
LongPheno = CSV.read(PhenoFile, DataFrame)

# 10515×4 DataFrame
#    Row │ IID       AGE      GENDER  LongPheno 
#        │ String15  Float64  Int64   Float64   
# ───────┼──────────────────────────────────────
#      1 │ Subj-1    49.7667       0    21.184  
#      2 │ Subj-1    46.9762       0    22.6392 
#      3 │ Subj-1    48.6039       0    22.999  
#      4 │ Subj-1    48.4704       0    22.8883 
#      5 │ Subj-1    50.5121       0    23.1773 
#      6 │ Subj-1    47.5477       0    22.7587 
#      7 │ Subj-1    50.2266       0    21.5066 
#      8 │ Subj-1    50.2574       0    22.9993 
#      9 │ Subj-1    49.1261       0    23.6902 
#    ⋮   │    ⋮         ⋮       ⋮         ⋮     
#  10508 │ f9_8      48.8736       1    18.8061 
#  10509 │ f9_8      50.4701       1    22.4624 
#  10510 │ f9_9      51.0203       1    24.1638 
#  10511 │ f9_9      50.3452       1    19.047
#  10512 │ f9_9      50.4438       1    24.2056
#  10513 │ f9_9      51.5276       1    24.8624
#  10514 │ f9_9      49.9013       1    23.1841
#  10515 │ f9_9      50.2109       1    21.5607
#                             10498 rows omitted
```
…
ResidMatFile_beta = split(PhenoFile,"simuLongPHENO.txt")[1] * "ResidMatFile_beta.txt"

f1 = open(ResidMatFile_beta, "w")
writedlm(f1, ["SubjID" "Resid"])

for j in 1:length(nullmodel.data)
        Resid_beta = sum(nullmodel.data[j].Dinv_r - transpose(nullmodel.data[j].rt_UUt))
        writedlm(f1, [rownames[j] Resid_beta])
end
close(f1)

ResidMat_beta = CSV.read(ResidMatFile_beta, DataFrame)

# 1000×2 DataFrame
#   Row │ SubjID    Resid      
#       │ String15  Float64    
# ──────┼──────────────────────
#     1 │ Subj-1     0.806224
#     2 │ Subj-10    0.964086
#     3 │ Subj-100  -1.00028
#     4 │ Subj-101   0.156806
#     5 │ Subj-102  -0.62983
#     6 │ Subj-103   0.0177747
#     7 │ Subj-104  -0.0753876
#     8 │ Subj-105   0.769811
#   ⋮   │    ⋮          ⋮
#   994 │ f9_3      -0.132167
#   995 │ f9_4       0.142017
#   996 │ f9_5      -1.25016
#   997 │ f9_6       0.265729
#   998 │ f9_7      -1.84335
#   999 │ f9_8      -0.883836
#  1000 │ f9_9       0.627392
#              985 rows omitted
```
…
ResidMatFile_tau = split(PhenoFile,"simuLongPHENO.txt")[1] * "ResidMatFile_tau.txt"

f2 = open(ResidMatFile_tau, "w")
writedlm(f2, ["SubjID" "Resid"])

for j in 1:length(nullmodel.data)
        Resid_tau = - sum(nm.data[j].diagDVRV)
        writedlm(f2, [rownames[j] Resid_tau])
end
close(f2)

ResidMat_tau = CSV.read(ResidMatFile_tau, DataFrame)

# 1000×2 DataFrame
#   Row │ SubjID    Resid      
#       │ String15  Float64    
# ──────┼──────────────────────
#     1 │ Subj-1      6.63029
#     2 │ Subj-10    10.1477
#     3 │ Subj-100    6.96377
#     4 │ Subj-101    2.00466
#     5 │ Subj-102    0.762797
#     6 │ Subj-103   -9.68518
#     7 │ Subj-104    7.93268
#   ⋮   │    ⋮          ⋮
#   995 │ f9_4       -9.50279
#   996 │ f9_5        1.54764
#   997 │ f9_6       -7.54868
#   998 │ f9_7        9.64257
#   999 │ f9_8        1.72898
#  1000 │ f9_9        0.151542
#              987 rows omitted
```
