…
# Setting position of samples in PLINK files....
# posSampleInPlink:	501 510 600
# SampleInModel:	Subj-1 Subj-10 Subj-100
# SampleInPlink:	f1_1 f1_2 f1_3
# Number of samples:	500
# Based on the 'GenoFile' and 'GenoFileIndex', PLINK format is used for genotype data.
# Number of Samples:	 500 
# Number of Markers:	 2000 
# Complete the genotype reading.
# Mean lambda:	 0.001080904 
# cutoffVec:	 -2.902171 2.960981 
# ControlOutlier = TRUE (default) to keep the outliers < 5%;
# Set ControlOutlier = FALSE for higher accuracy.
# Outliers information is as below
# A tibble: 24 x 3
#    SubjID   Resid Outlier
# 1 Subj-304 -4.91 TRUE   
#  2 Subj-474 -4.10 TRUE   
#  3 Subj-367 -4.05 TRUE   
#  4 Subj-242 -4.01 TRUE   
#  5 Subj-109 -3.69 TRUE   
#  6 Subj-253 -3.67 TRUE   
#  7 Subj-458 -3.62 TRUE   
#  8 Subj-399 -3.50 TRUE   
#  9 Subj-227 -3.41 TRUE   
# 10 Subj-300 -3.38 TRUE   
# i 14 more rows
# i Use `print(n = ...)` to see more rows
```
…
